…
```
## Parsed with column specification:
## cols(
##   `Date Time, GMT-07:00` = col_character(),
##   `Temp, C` = col_double(),
##   `RH, %` = col_double()
## )
```

```r
JT.data
```

```
## # A tibble: 18,736 × 3
##    `Date Time, GMT-07:00` `Temp, C` `RH, %`
##                     <chr>     <dbl>   <dbl>
## 1            7/1/14 17:00    21.748  61.518
## 2            7/1/14 17:00        NA      NA
## 3            7/1/14 17:06    21.963  59.877
## 4            7/1/14 17:12    21.843  60.255
## 5            7/1/14 17:18    21.748  60.484
## 6            7/1/14 17:24    21.700  60.842
## 7            7/1/14 17:30    21.676  61.051
## 8            7/1/14 17:36    21.628  61.347
## 9            7/1/14 17:42    21.604  61.738
## 10           7/1/14 17:48    21.581  62.642
## # ... with 18,726 more rows
```
…
```r
KN.data
```

```
## # A tibble: 8,026 × 6
##    Index          `Date/Time` `Temp(C)` `Humidity(%rh)` `Dew Point(C)`
##    <int>                <chr>     <dbl>           <dbl>          <dbl>
## 1      1 2/1/2017 10:09:32 AM      23.0            37.0            7.5
## 2      2 2/1/2017 10:39:32 AM      24.5            35.5            8.3
## 3      3 2/1/2017 11:09:32 AM      25.0            34.5            8.3
## 4      4 2/1/2017 11:39:32 AM      25.0            34.5            8.3
## 5      5 2/1/2017 12:09:32 PM      24.5            34.5            7.8
## 6      6 2/1/2017 12:39:32 PM      24.5            34.5            7.8
## 7      7  2/1/2017 1:09:32 PM      25.0            34.0            8.1
## 8      8  2/1/2017 1:39:32 PM      25.0            34.5            8.3
## 9      9  2/1/2017 2:09:32 PM      25.5            33.5            8.3
## 10    10  2/1/2017 2:39:32 PM      25.5            34.0            8.5
## # ... with 8,016 more rows, and 1 more variables: X6 <chr>
```
…
