…
```r
problems(challenge)
```

```
## # A tibble: 1,000 × 5
##      row   col               expected             actual
##    <int> <chr>                  <chr>              <chr>
## 1   1001     x no trailing characters .23837975086644292
## 2   1002     x no trailing characters .41167997173033655
## 3   1003     x no trailing characters  .7460716762579978
## 4   1004     x no trailing characters   .723450553836301
## 5   1005     x no trailing characters   .614524137461558
## 6   1006     x no trailing characters   .473980569280684
## 7   1007     x no trailing characters  .5784610391128808
## 8   1008     x no trailing characters  .2415937229525298
## 9   1009     x no trailing characters .11437866208143532
## 10  1010     x no trailing characters  .2983446326106787
## # ... with 990 more rows, and 1 more variables: file <chr>
```
…
```
## Parsed with column specification:
## cols(
##   x = col_double(),
##   y = col_date(format = "")
## )
```

```r
challenge2
```

```
## # A tibble: 2,000 × 2
##        x      y
##    <dbl> <date>
## 1    404   <NA>
## 2   4172   <NA>
## 3   3004   <NA>
## 4    787   <NA>
## 5     37   <NA>
## 6   2332   <NA>
## 7   2489   <NA>
## 8   1449   <NA>
## 9   3665   <NA>
## 10  3863   <NA>
## # ... with 1,990 more rows
```
…
```r
write_csv(challenge, "challenge.csv")
challenge
```

```
## # A tibble: 2,000 × 2
##        x      y
##    <dbl> <date>
## 1    404   <NA>
## 2   4172   <NA>
## 3   3004   <NA>
## 4    787   <NA>
## 5     37   <NA>
## 6   2332   <NA>
## 7   2489   <NA>
## 8   1449   <NA>
## 9   3665   <NA>
## 10  3863   <NA>
## # ... with 1,990 more rows
```
…
```
## Warning: 1000 parsing failures.
##  row col               expected             actual              file
## 1001   x no trailing characters .23837975086644292 'challenge-2.csv'
## 1002   x no trailing characters .41167997173033655 'challenge-2.csv'
## 1003   x no trailing characters .7460716762579978  'challenge-2.csv'
## 1004   x no trailing characters .723450553836301   'challenge-2.csv'
## 1005   x no trailing characters .614524137461558   'challenge-2.csv'
## .... ... ...................... .................. .................
## See problems(...) for more details.
```

```
## # A tibble: 2,000 × 2
##        x     y
##    <int> <chr>
## 1    404  <NA>
## 2   4172  <NA>
## 3   3004  <NA>
## 4    787  <NA>
## 5     37  <NA>
## 6   2332  <NA>
## 7   2489  <NA>
## 8   1449  <NA>
## 9   3665  <NA>
## 10  3863  <NA>
## # ... with 1,990 more rows
```

```r
# This makes CSVs a little unreliable for caching interim results—you need to recreate the column specification every time you load in. There are two alternatives:
#1. write_rds() and read_rds() are uniform wrappers around the base functions readRDS() and saveRDS(). These store data in R’s custom binary format called RDS:
write_rds(challenge, "challenge.rds")
read_rds("challenge.rds")
```

```
## # A tibble: 2,000 × 2
##        x      y
##    <dbl> <date>
## 1    404   <NA>
## 2   4172   <NA>
## 3   3004   <NA>
## 4    787   <NA>
## 5     37   <NA>
## 6   2332   <NA>
## 7   2489   <NA>
## 8   1449   <NA>
## 9   3665   <NA>
## 10  3863   <NA>
## # ... with 1,990 more rows
```

```r
#2 The feather package implements a fast binary file format that can be shared across programming languages:
library(feather)
write_feather(challenge, "challenge.feather")
read_feather("challenge.feather")
```

```
## # A tibble: 2,000 × 2
##        x      y
##    <dbl> <date>
## 1    404   <NA>
## 2   4172   <NA>
## 3   3004   <NA>
## 4    787   <NA>
## 5     37   <NA>
## 6   2332   <NA>
## 7   2489   <NA>
## 8   1449   <NA>
## 9   3665   <NA>
## 10  3863   <NA>
## # ... with 1,990 more rows
```
…
