Kazu_May24
…
diamonds %>% 
  count(color, cut)

## Source: local data frame [35 x 3]
## Groups: color [?]
## 
##    color       cut     n
##    <ord>     <ord> <int>
## 1      D      Fair   163
## 2      D      Good   662
## 3      D Very Good  1513
## 4      D   Premium  1603
## 5      D     Ideal  2834
## 6      E      Fair   224
## 7      E      Good   933
## 8      E Very Good  2400
## 9      E   Premium  2337
## 10     E     Ideal  3903
## # ... with 25 more rows
…
#2. Use geom_tile() together with dplyr to explore how average flight delays vary by destination and month of year. What makes the plot difficult to read? How could you improve it?
average.delay.month.summary<-flights %>% group_by(dest,month) %>% summarise(av.flight.delay=mean(dep_delay,na.rm=T)) %>% filter(!is.na(av.flight.delay))
average.delay.month.summary

## Source: local data frame [1,112 x 3]
## Groups: dest [104]
## 
##     dest month av.flight.delay
##    <chr> <int>           <dbl>
## 1    ABQ     4        2.666667
## 2    ABQ     5       11.645161
## 3    ABQ     6       15.466667
## 4    ABQ     7       24.258065
## 5    ABQ     8       15.903226
## 6    ABQ     9       19.166667
## 7    ABQ    10        4.322581
## 8    ABQ    11       -2.200000
## 9    ABQ    12       24.290323
## 10   ACK     5        9.047619
## # ... with 1,102 more rows
…
