…
```r
#2. What does na.rm = TRUE do in mean() and sum()?
flights.s %>% group_by(dest) %>% summarise(delay.na.rm = mean(dep_delay, na.rm = TRUE),delay = mean(dep_delay, na.rm = FALSE),count.na=sum(is.na(dep_time))) # na.rm = TRUE is necesary to calculate mean 
```

```
## # A tibble: 105 × 4
##     dest delay.na.rm     delay count.na
##    <chr>       <dbl>     <dbl>    <int>
## 1    ABQ   13.740157 13.740157        0
## 2    ACK    6.456604  6.456604        0
## 3    ALB   23.620525        NA       20
## 4    ANC   12.875000 12.875000        0
## 5    ATL   12.509824        NA      317
## 6    AUS   13.025641        NA       21
## 7    AVL    8.190114        NA       12
## 8    BDL   17.720874        NA       31
## 9    BGR   19.475000        NA       15
## 10   BHM   29.694853        NA       25
## # ... with 95 more rows
```

```r
flights.s %>% group_by(dest) %>% summarise(delay.na.rm = sum(dep_delay, na.rm = TRUE),delay = sum(dep_delay, na.rm = FALSE),count.na=sum(is.na(dep_time))) # na.rm = TRUE is not necesary to calculate mean 
```

```
## # A tibble: 105 × 4
##     dest delay.na.rm delay count.na
##    <chr>       <dbl> <dbl>    <int>
## 1    ABQ        3490  3490        0
## 2    ACK        1711  1711        0
## 3    ALB        9897    NA       20
## 4    ANC         103   103        0
## 5    ATL      211391    NA      317
## 6    AUS       31496    NA       21
## 7    AVL        2154    NA       12
## 8    BDL        7301    NA       31
## 9    BGR        7011    NA       15
## 10   BHM        8077    NA       25
## # ... with 95 more rows
```
…
```r
diamonds %>% 
  count(color, cut)
```

```
## Source: local data frame [35 x 3]
## Groups: color [?]
## 
##    color       cut     n
##    <ord>     <ord> <int>
## 1      D      Fair   163
## 2      D      Good   662
## 3      D Very Good  1513
## 4      D   Premium  1603
## 5      D     Ideal  2834
## 6      E      Fair   224
## 7      E      Good   933
## 8      E Very Good  2400
## 9      E   Premium  2337
## 10     E     Ideal  3903
## # ... with 25 more rows
```
…
```r
#2. Use geom_tile() together with dplyr to explore how average flight delays vary by destination and month of year. What makes the plot difficult to read? How could you improve it?
average.delay.month.summary<-flights %>% group_by(dest,month) %>% summarise(av.flight.delay=mean(dep_delay,na.rm=T)) %>% filter(!is.na(av.flight.delay))
average.delay.month.summary
```

```
## Source: local data frame [1,112 x 3]
## Groups: dest [104]
## 
##     dest month av.flight.delay
##    <chr> <int>           <dbl>
## 1    ABQ     4        2.666667
## 2    ABQ     5       11.645161
## 3    ABQ     6       15.466667
## 4    ABQ     7       24.258065
## 5    ABQ     8       15.903226
## 6    ABQ     9       19.166667
## 7    ABQ    10        4.322581
## 8    ABQ    11       -2.200000
## 9    ABQ    12       24.290323
## 10   ACK     5        9.047619
## # ... with 1,102 more rows
```
…
