…
```r
who
```

```
## # A tibble: 7,240 × 60
##        country  iso2  iso3  year new_sp_m014 new_sp_m1524 new_sp_m2534
##          <chr> <chr> <chr> <int>       <int>        <int>        <int>
## 1  Afghanistan    AF   AFG  1980          NA           NA           NA
## 2  Afghanistan    AF   AFG  1981          NA           NA           NA
## 3  Afghanistan    AF   AFG  1982          NA           NA           NA
## 4  Afghanistan    AF   AFG  1983          NA           NA           NA
## 5  Afghanistan    AF   AFG  1984          NA           NA           NA
## 6  Afghanistan    AF   AFG  1985          NA           NA           NA
## 7  Afghanistan    AF   AFG  1986          NA           NA           NA
## 8  Afghanistan    AF   AFG  1987          NA           NA           NA
## 9  Afghanistan    AF   AFG  1988          NA           NA           NA
## 10 Afghanistan    AF   AFG  1989          NA           NA           NA
## # ... with 7,230 more rows, and 53 more variables: new_sp_m3544 <int>,
## #   new_sp_m4554 <int>, new_sp_m5564 <int>, new_sp_m65 <int>,
## #   new_sp_f014 <int>, new_sp_f1524 <int>, new_sp_f2534 <int>,
## #   new_sp_f3544 <int>, new_sp_f4554 <int>, new_sp_f5564 <int>,
## #   new_sp_f65 <int>, new_sn_m014 <int>, new_sn_m1524 <int>,
## #   new_sn_m2534 <int>, new_sn_m3544 <int>, new_sn_m4554 <int>,
## #   new_sn_m5564 <int>, new_sn_m65 <int>, new_sn_f014 <int>,
## #   new_sn_f1524 <int>, new_sn_f2534 <int>, new_sn_f3544 <int>,
## #   new_sn_f4554 <int>, new_sn_f5564 <int>, new_sn_f65 <int>,
…
```r
# The best place to start is almost always to gather together the columns that are not variables. Let’s have a look at what we’ve got:
# It looks like country, iso2, and iso3 are three variables that redundantly specify the country.
# year is clearly also a variable.
# We don’t know what all the other columns are yet, but given the structure in the variable names (e.g. new_sp_m014, new_ep_m014, new_ep_f014) these are likely to be values, not variables.
who1 <- who %>% 
  gather(new_sp_m014:newrel_f65, key = "key", value = "cases", na.rm = TRUE)
who1
```

```
## # A tibble: 76,046 × 6
##        country  iso2  iso3  year         key cases
## *        <chr> <chr> <chr> <int>       <chr> <int>
## 1  Afghanistan    AF   AFG  1997 new_sp_m014     0
## 2  Afghanistan    AF   AFG  1998 new_sp_m014    30
## 3  Afghanistan    AF   AFG  1999 new_sp_m014     8
## 4  Afghanistan    AF   AFG  2000 new_sp_m014    52
## 5  Afghanistan    AF   AFG  2001 new_sp_m014   129
## 6  Afghanistan    AF   AFG  2002 new_sp_m014    90
## 7  Afghanistan    AF   AFG  2003 new_sp_m014   127
## 8  Afghanistan    AF   AFG  2004 new_sp_m014   139
## 9  Afghanistan    AF   AFG  2005 new_sp_m014   151
## 10 Afghanistan    AF   AFG  2006 new_sp_m014   193
## # ... with 76,036 more rows
```

```r
# We can get some hint of the structure of the values in the new key column by counting them:
who1 %>% 
  count(key)
```

```
## # A tibble: 56 × 2
##             key     n
##           <chr> <int>
## 1   new_ep_f014  1032
## 2  new_ep_f1524  1021
## 3  new_ep_f2534  1021
## 4  new_ep_f3544  1021
## 5  new_ep_f4554  1017
## 6  new_ep_f5564  1017
## 7    new_ep_f65  1014
## 8   new_ep_m014  1038
## 9  new_ep_m1524  1026
## 10 new_ep_m2534  1020
## # ... with 46 more rows
```
…
```r
who1 %>% count(key) %>% separate(key,c("one","two","three"),sep="_") # Warning message:Too few values at 14 locations: 43, 44, 45, 46, 47, 48, 49, 50, 51, 52, 53, 54, 55, 56 
```

```
## Warning: Too few values at 14 locations: 43, 44, 45, 46, 47, 48, 49, 50,
## 51, 52, 53, 54, 55, 56
```

```
## # A tibble: 56 × 4
##      one   two three     n
## *  <chr> <chr> <chr> <int>
## 1    new    ep  f014  1032
## 2    new    ep f1524  1021
## 3    new    ep f2534  1021
## 4    new    ep f3544  1021
## 5    new    ep f4554  1017
## 6    new    ep f5564  1017
## 7    new    ep   f65  1014
## 8    new    ep  m014  1038
## 9    new    ep m1524  1026
## 10   new    ep m2534  1020
## # ... with 46 more rows
```
…
```r
### the end of my own trial

# We need to make a minor fix to the format of the column names: unfortunately the names are slightly inconsistent because instead of new_rel we have newrel (it’s hard to spot this here but if you don’t fix it we’ll get errors in subsequent steps). You’ll learn about str_replace() in strings, but the basic idea is pretty simple: replace the characters “newrel” with “new_rel”. This makes all variable names consistent.

who2 <- who1 %>% 
  mutate(key = stringr::str_replace(key, "newrel", "new_rel"))
who2
```

```
## # A tibble: 76,046 × 6
##        country  iso2  iso3  year         key cases
##          <chr> <chr> <chr> <int>       <chr> <int>
## 1  Afghanistan    AF   AFG  1997 new_sp_m014     0
## 2  Afghanistan    AF   AFG  1998 new_sp_m014    30
## 3  Afghanistan    AF   AFG  1999 new_sp_m014     8
## 4  Afghanistan    AF   AFG  2000 new_sp_m014    52
## 5  Afghanistan    AF   AFG  2001 new_sp_m014   129
## 6  Afghanistan    AF   AFG  2002 new_sp_m014    90
## 7  Afghanistan    AF   AFG  2003 new_sp_m014   127
## 8  Afghanistan    AF   AFG  2004 new_sp_m014   139
## 9  Afghanistan    AF   AFG  2005 new_sp_m014   151
## 10 Afghanistan    AF   AFG  2006 new_sp_m014   193
## # ... with 76,036 more rows
```

```r
# We can separate the values in each code with two passes of separate(). The first pass will split the codes at each underscore.

who3 <- who2 %>% 
  separate(key, c("new", "type", "sexage"), sep = "_")
who3
```

```
## # A tibble: 76,046 × 8
##        country  iso2  iso3  year   new  type sexage cases
## *        <chr> <chr> <chr> <int> <chr> <chr>  <chr> <int>
## 1  Afghanistan    AF   AFG  1997   new    sp   m014     0
## 2  Afghanistan    AF   AFG  1998   new    sp   m014    30
## 3  Afghanistan    AF   AFG  1999   new    sp   m014     8
## 4  Afghanistan    AF   AFG  2000   new    sp   m014    52
## 5  Afghanistan    AF   AFG  2001   new    sp   m014   129
## 6  Afghanistan    AF   AFG  2002   new    sp   m014    90
## 7  Afghanistan    AF   AFG  2003   new    sp   m014   127
## 8  Afghanistan    AF   AFG  2004   new    sp   m014   139
## 9  Afghanistan    AF   AFG  2005   new    sp   m014   151
## 10 Afghanistan    AF   AFG  2006   new    sp   m014   193
## # ... with 76,036 more rows
```

```r
who4 <- who3 %>% 
  select(-new, -iso2, -iso3)
#Next we’ll separate sexage into sex and age by splitting after the first character:

who5 <- who4 %>% 
  separate(sexage, c("sex", "age"), sep = 1)
who5
```

```
## # A tibble: 76,046 × 6
##        country  year  type   sex   age cases
## *        <chr> <int> <chr> <chr> <chr> <int>
## 1  Afghanistan  1997    sp     m   014     0
## 2  Afghanistan  1998    sp     m   014    30
## 3  Afghanistan  1999    sp     m   014     8
## 4  Afghanistan  2000    sp     m   014    52
## 5  Afghanistan  2001    sp     m   014   129
## 6  Afghanistan  2002    sp     m   014    90
## 7  Afghanistan  2003    sp     m   014   127
## 8  Afghanistan  2004    sp     m   014   139
## 9  Afghanistan  2005    sp     m   014   151
## 10 Afghanistan  2006    sp     m   014   193
## # ... with 76,036 more rows
```

```r
# The who dataset is now tidy!
# I’ve shown you the code a piece at a time, assigning each interim result to a new variable. This typically isn’t how you’d work interactively. Instead, you’d gradually build up a complex pipe:

who %>%
  gather(code, value, new_sp_m014:newrel_f65, na.rm = TRUE) %>% 
  mutate(code = stringr::str_replace(code, "newrel", "new_rel")) %>%
  separate(code, c("new", "var", "sexage")) %>% 
  select(-new, -iso2, -iso3) %>% 
  separate(sexage, c("sex", "age"), sep = 1)
```

```
## # A tibble: 76,046 × 6
##        country  year   var   sex   age value
## *        <chr> <int> <chr> <chr> <chr> <int>
## 1  Afghanistan  1997    sp     m   014     0
## 2  Afghanistan  1998    sp     m   014    30
## 3  Afghanistan  1999    sp     m   014     8
## 4  Afghanistan  2000    sp     m   014    52
## 5  Afghanistan  2001    sp     m   014   129
## 6  Afghanistan  2002    sp     m   014    90
## 7  Afghanistan  2003    sp     m   014   127
## 8  Afghanistan  2004    sp     m   014   139
## 9  Afghanistan  2005    sp     m   014   151
## 10 Afghanistan  2006    sp     m   014   193
## # ... with 76,036 more rows
```
…
```r
#1. In this case study I set na.rm = TRUE just to make it easier to check that we had the correct values. Is this reasonable? Think about how missing values are represented in this dataset. Are there implicit missing values? What’s the difference between an NA and zero?

#2. What happens if you neglect the mutate() step? (mutate(key = stringr::str_replace(key, "newrel", "new_rel")))
who %>%
  gather(code, value, new_sp_m014:newrel_f65, na.rm = TRUE) %>% 
  #mutate(code = stringr::str_replace(code, "newrel", "new_rel")) %>%
  #separate(code, c("new", "var", "sexage")) %>% 
  separate(code, c("new", "var", "sexage"),fill="right") %>% # with "newrel" row has only two 
  select(-new, -iso2, -iso3) %>% 
  separate(sexage, c("sex", "age"), sep = 1)
```

```
## # A tibble: 76,046 × 6
##        country  year   var   sex   age value
## *        <chr> <int> <chr> <chr> <chr> <int>
## 1  Afghanistan  1997    sp     m   014     0
## 2  Afghanistan  1998    sp     m   014    30
## 3  Afghanistan  1999    sp     m   014     8
## 4  Afghanistan  2000    sp     m   014    52
## 5  Afghanistan  2001    sp     m   014   129
## 6  Afghanistan  2002    sp     m   014    90
## 7  Afghanistan  2003    sp     m   014   127
## 8  Afghanistan  2004    sp     m   014   139
## 9  Afghanistan  2005    sp     m   014   151
## 10 Afghanistan  2006    sp     m   014   193
## # ... with 76,036 more rows
```

```r
# Warning message:Too few values at 2580 locations: 73467, 73468, 73469, 73470, 73471, 73472, 73473, 73474, 73475, 73476, 73477, 73478, 73479, 73480, 73481, 73482, 73483, 73484, 73485, 73486, ... 


#3. I claimed that iso2 and iso3 were redundant with country. Confirm this claim.
who %>% 
  unite(country,iso2,iso3,col="combined",remove=FALSE) %>% select(combined) %>% count(combined) # this is not what I want
```

```
## # A tibble: 219 × 2
##                      combined     n
##                         <chr> <int>
## 1          Afghanistan_AF_AFG    34
## 2              Albania_AL_ALB    34
## 3              Algeria_DZ_DZA    34
## 4       American Samoa_AS_ASM    34
## 5              Andorra_AD_AND    34
## 6               Angola_AO_AGO    34
## 7             Anguilla_AI_AIA    34
## 8  Antigua and Barbuda_AG_ATG    34
## 9            Argentina_AR_ARG    34
## 10             Armenia_AM_ARM    34
## # ... with 209 more rows
```
…
