…
```r
as_tibble(iris)
```

```
## # A tibble: 150 × 5
##    Sepal.Length Sepal.Width Petal.Length Petal.Width Species
##           <dbl>       <dbl>        <dbl>       <dbl>  <fctr>
## 1           5.1         3.5          1.4         0.2  setosa
## 2           4.9         3.0          1.4         0.2  setosa
## 3           4.7         3.2          1.3         0.2  setosa
## 4           4.6         3.1          1.5         0.2  setosa
## 5           5.0         3.6          1.4         0.2  setosa
## 6           5.4         3.9          1.7         0.4  setosa
## 7           4.6         3.4          1.4         0.3  setosa
## 8           5.0         3.4          1.5         0.2  setosa
## 9           4.4         2.9          1.4         0.2  setosa
## 10          4.9         3.1          1.5         0.1  setosa
## # ... with 140 more rows
```
…
```r
tibble(
  a = lubridate::now() + runif(1e3) * 86400,
  b = lubridate::today() + runif(1e3) * 30,
  c = 1:1e3,
  d = runif(1e3),
  e = sample(letters, 1e3, replace = TRUE)
)
```

```
## # A tibble: 1,000 × 5
##                      a          b     c          d     e
##                 <dttm>     <date> <int>      <dbl> <chr>
## 1  2017-06-01 00:43:32 2017-06-14     1 0.03371285     u
## 2  2017-05-31 23:44:53 2017-06-02     2 0.12559413     a
## 3  2017-06-01 04:15:35 2017-06-09     3 0.29327546     i
## 4  2017-05-31 20:29:04 2017-06-19     4 0.23946122     d
## 5  2017-06-01 04:19:40 2017-06-26     5 0.82501419     j
## 6  2017-06-01 03:17:05 2017-06-09     6 0.40072332     a
## 7  2017-06-01 14:13:57 2017-06-25     7 0.23340123     q
## 8  2017-06-01 01:45:16 2017-06-05     8 0.23007574     r
## 9  2017-06-01 07:03:59 2017-06-14     9 0.75816889     d
## 10 2017-06-01 09:22:09 2017-06-24    10 0.82717117     a
## # ... with 990 more rows
```
…
```r
class(tib.mtcars2) # same
```

```
## [1] "tbl_df"     "tbl"        "data.frame"
```

```r
tib.mtcars
```

```
## # A tibble: 32 × 11
##      mpg   cyl  disp    hp  drat    wt  qsec    vs    am  gear  carb
## *  <dbl> <dbl> <dbl> <dbl> <dbl> <dbl> <dbl> <dbl> <dbl> <dbl> <dbl>
## 1   21.0     6 160.0   110  3.90 2.620 16.46     0     1     4     4
## 2   21.0     6 160.0   110  3.90 2.875 17.02     0     1     4     4
## 3   22.8     4 108.0    93  3.85 2.320 18.61     1     1     4     1
## 4   21.4     6 258.0   110  3.08 3.215 19.44     1     0     3     1
## 5   18.7     8 360.0   175  3.15 3.440 17.02     0     0     3     2
## 6   18.1     6 225.0   105  2.76 3.460 20.22     1     0     3     1
## 7   14.3     8 360.0   245  3.21 3.570 15.84     0     0     3     4
## 8   24.4     4 146.7    62  3.69 3.190 20.00     1     0     4     2
## 9   22.8     4 140.8    95  3.92 3.150 22.90     1     0     4     2
## 10  19.2     6 167.6   123  3.92 3.440 18.30     1     0     4     4
## # ... with 22 more rows
```
…
```r
#6. What option controls how many additional column names are printed at the footer of a tibble?
?tibble::tibble
?print
flights
```

```
## # A tibble: 336,776 × 19
##     year month   day dep_time sched_dep_time dep_delay arr_time
##    <int> <int> <int>    <int>          <int>     <dbl>    <int>
## 1   2013     1     1      517            515         2      830
## 2   2013     1     1      533            529         4      850
## 3   2013     1     1      542            540         2      923
## 4   2013     1     1      544            545        -1     1004
## 5   2013     1     1      554            600        -6      812
## 6   2013     1     1      554            558        -4      740
## 7   2013     1     1      555            600        -5      913
## 8   2013     1     1      557            600        -3      709
## 9   2013     1     1      557            600        -3      838
## 10  2013     1     1      558            600        -2      753
## # ... with 336,766 more rows, and 12 more variables: sched_arr_time <int>,
## #   arr_delay <dbl>, carrier <chr>, flight <int>, tailnum <chr>,
## #   origin <chr>, dest <chr>, air_time <dbl>, distance <dbl>, hour <dbl>,
## #   minute <dbl>, time_hour <dttm>
```
…
```r
?print.tbl_df 
print(flights)
```

```
## # A tibble: 336,776 × 19
##     year month   day dep_time sched_dep_time dep_delay arr_time
##    <int> <int> <int>    <int>          <int>     <dbl>    <int>
## 1   2013     1     1      517            515         2      830
## 2   2013     1     1      533            529         4      850
## 3   2013     1     1      542            540         2      923
## 4   2013     1     1      544            545        -1     1004
## 5   2013     1     1      554            600        -6      812
## 6   2013     1     1      554            558        -4      740
## 7   2013     1     1      555            600        -5      913
## 8   2013     1     1      557            600        -3      709
## 9   2013     1     1      557            600        -3      838
## 10  2013     1     1      558            600        -2      753
## # ... with 336,766 more rows, and 12 more variables: sched_arr_time <int>,
## #   arr_delay <dbl>, carrier <chr>, flight <int>, tailnum <chr>,
## #   origin <chr>, dest <chr>, air_time <dbl>, distance <dbl>, hour <dbl>,
## #   minute <dbl>, time_hour <dttm>
```

```r
print(flights, n_extra = 2) # does not work why?
```

```
## # A tibble: 336,776 × 19
##     year month   day dep_time sched_dep_time dep_delay arr_time
##    <int> <int> <int>    <int>          <int>     <dbl>    <int>
## 1   2013     1     1      517            515         2      830
## 2   2013     1     1      533            529         4      850
## 3   2013     1     1      542            540         2      923
## 4   2013     1     1      544            545        -1     1004
## 5   2013     1     1      554            600        -6      812
## 6   2013     1     1      554            558        -4      740
## 7   2013     1     1      555            600        -5      913
## 8   2013     1     1      557            600        -3      709
## 9   2013     1     1      557            600        -3      838
## 10  2013     1     1      558            600        -2      753
## # ... with 336,766 more rows, and 12 more variables: sched_arr_time <int>,
## #   arr_delay <dbl>, ...
```
