…
```r
sim1_dist <- function(a1, a2) {
  measure_distance(c(a1, a2), sim1)
}

models <- models %>% 
  mutate(dist = purrr::map2_dbl(a1, a2, sim1_dist))
models
```

```
## # A tibble: 250 × 3
##            a1         a2      dist
##         <dbl>      <dbl>     <dbl>
## 1   10.013353  4.0611381 17.933572
## 2    9.738681  3.0520814 11.586539
## 3   21.085996 -1.3067653 10.007575
## 4   25.657001  2.6381874 24.811713
## 5   13.665190 -0.6670105  9.789509
## 6  -19.306859 -2.2811124 49.011264
## 7   17.574218 -0.9382959  9.371699
## 8  -14.228985 -4.2087107 55.895150
## 9   33.291173 -2.0506545 13.627836
## 10  -2.431964  4.4161501  9.540123
## # ... with 240 more rows
```
…
